{
  "IsDebug": true,
  "Server": {
    "Port": ":8080"
  },
  "TestDb": {
      "Host": "localhost",
      "Port": "5432",
      "User": "admin",
      "Password": "1234",
      "Name": "testDb"
  }
}
